<?xml version="1.0" encoding="UTF-8" standalone="no"?>
<svg
   xmlns:dc="http://purl.org/dc/elements/1.1/"
   xmlns:cc="http://creativecommons.org/ns#"
   xmlns:rdf="http://www.w3.org/1999/02/22-rdf-syntax-ns#"
   xmlns:svg="http://www.w3.org/2000/svg"
   xmlns="http://www.w3.org/2000/svg"
   xmlns:sodipodi="http://sodipodi.sourceforge.net/DTD/sodipodi-0.dtd"
   xmlns:inkscape="http://www.inkscape.org/namespaces/inkscape"
   version="1.0"
   width="250px"
   height="250px"
   viewBox="0 0 2500 2500"
   preserveAspectRatio="xMidYMid meet"
   id="svg24"
   sodipodi:docname="nrcki.svg"
   inkscape:version="0.92.4 5da689c313, 2019-01-14">
  <metadata
     id="metadata30">
    <rdf:RDF>
      <cc:Work
         rdf:about="">
        <dc:format>image/svg+xml</dc:format>
        <dc:type
           rdf:resource="http://purl.org/dc/dcmitype/StillImage" />
      </cc:Work>
    </rdf:RDF>
  </metadata>
  <defs
     id="defs28" />
  <sodipodi:namedview
     pagecolor="#ffffff"
     bordercolor="#666666"
     borderopacity="1"
     objecttolerance="10"
     gridtolerance="10"
     guidetolerance="10"
     inkscape:pageopacity="0"
     inkscape:pageshadow="2"
     inkscape:window-width="1366"
     inkscape:window-height="707"
     id="namedview26"
     showgrid="false"
     inkscape:zoom="2.0149341"
     inkscape:cx="125"
     inkscape:cy="126.20904"
     inkscape:window-x="0"
     inkscape:window-y="0"
     inkscape:window-maximized="1"
     inkscape:current-layer="svg24" />
  <g
     id="layer101"
     transform="matrix(1.6874922,0,0,1.6874922,-896.58907,-819.501)"
     style="fill:#053f74;stroke:none">
    <path
       d="m 1117,1934 c -217,-52 -369,-203 -413,-408 -7,-33 -13,-80 -14,-103 v -43 h 84 c 46,0 103,3 128,6 l 44,6 12,65 c 25,129 102,227 203,257 29,9 61,16 71,16 16,0 18,10 18,110 v 110 l -37,-1 c -21,0 -64,-7 -96,-15 z"
       id="path2"
       inkscape:connector-curvature="0" />
    <path
       d="m 1297,1943 c -4,-3 -7,-52 -7,-109 v -102 l 43,-7 c 73,-13 115,-36 166,-91 49,-54 91,-146 91,-203 0,-47 8,-50 140,-52 147,-2 141,-8 116,121 -42,224 -204,387 -431,435 -77,16 -108,18 -118,8 z"
       id="path4"
       inkscape:connector-curvature="0" />
    <path
       d="m 1162,1683 c -93,-33 -165,-136 -174,-248 l -3,-40 35,3 c 121,12 216,113 227,243 6,57 5,59 -18,58 -13,0 -43,-7 -67,-16 z"
       id="path6"
       inkscape:connector-curvature="0" />
    <path
       d="m 1294,1646 c 3,-32 13,-74 22,-94 30,-74 115,-136 212,-157 31,-6 32,-6 32,27 0,131 -104,254 -231,274 l -42,7 z"
       id="path8"
       inkscape:connector-curvature="0" />
    <path
       d="m 1194,1446 c -29,-29 -34,-41 -34,-81 0,-40 5,-52 34,-81 28,-28 42,-34 75,-34 49,0 86,22 107,61 42,81 -16,169 -112,169 -28,0 -44,-8 -70,-34 z"
       id="path10"
       inkscape:connector-curvature="0" />
    <path
       d="M 690,927 V 500 h 130 130 v 420 420 h -32 c -18,0 -77,3 -130,7 l -98,6 z"
       id="path12"
       inkscape:connector-curvature="0" />
    <path
       d="m 1663,1343 -63,-4 -2,-319 c -2,-176 -3,-364 -3,-417 v -98 l 133,-3 132,-3 v 426 425 l -67,-2 c -38,-1 -96,-3 -130,-5 z"
       id="path14"
       inkscape:connector-curvature="0" />
    <path
       d="m 986,1323 c -3,-4 -6,-190 -6,-415 V 500 h 135 135 v 300 c 0,338 -6,373 -76,443 -51,50 -168,100 -188,80 z"
       id="path16"
       inkscape:connector-curvature="0" />
    <path
       d="m 1482,1311 c -100,-35 -160,-107 -182,-220 -5,-30 -10,-175 -10,-322 V 500 h 135 135 v 415 c 0,326 -3,415 -12,415 -7,-1 -37,-9 -66,-19 z"
       id="path18"
       inkscape:connector-curvature="0" />
  </g>
  <g
     id="layer102"
     transform="matrix(1.6874922,0,0,1.6874922,-896.58907,-819.501)"
     style="fill:#bf1f2f;stroke:none">
    <path
       d="m 1194,1446 c -29,-29 -34,-41 -34,-81 0,-40 5,-52 34,-81 28,-28 42,-34 75,-34 49,0 86,22 107,61 42,81 -16,169 -112,169 -28,0 -44,-8 -70,-34 z"
       id="path21"
       inkscape:connector-curvature="0" />
  </g>
</svg>
